{
    "name": "Saga / Triton",
    "sku": "231",
    "release_date": "1998",
    "country": "UK",
    "categories": ["Electronic", "Drum n Bass"],
    "channel": "default",
    "locale": "en",
    "type": "simple",
    "seller_id": 1,
    "attribute_family_id": 2,
    "price": 0,
    "weight": 0,
    "master_id": "565150",
    "is_main_release": true,
    "description": "",
    "short_description": "",
    "formats": [
        {
            "name": "Vinyl",
            "qty": "1",
            "text": "",
            "descriptions": [["12\"", "33 ⅓ RPM"]]
        }
    ],
    "seller": {
        "price": "32",
        "shipping_price": "32",
        "description": "32",
        "private_comments": "32",
        "storage_location": "23",
        "condition": "M-",
        "sleeve_condition": "M"
    },
    "tracklist": [
        {
            "position": "",
            "title": "This Side ",
            "duration": "",
            "artists": null
        },
        {
            "position": "A",
            "title": "Saga",
            "duration": "",
            "artists": null
        },
        {
            "position": "",
            "title": "That Side",
            "duration": "",
            "artists": null
        },
        {
            "position": "B",
            "title": "Triton",
            "duration": "",
            "artists": null
        }
    ],
    "labels": [
        {
            "name": "Renegade Hardware",
            "label_id": "125",
            "cat_no": "RH09"
        }
    ],
    "artists": [
        {
            "artist_id": "303",
            "name": "Future Forces Inc"
        }
    ],
    "identifiers": [
        {
            "description": null,
            "type": "Barcode",
            "value": "5 029651 000035"
        },
        {
            "description": "A",
            "type": "Matrix / Runout",
            "value": "RH 09 - A2  MANDY THE EXCHANGE   mA."
        },
        {
            "description": "B",
            "type": "Matrix / Runout",
            "value": "RH-09-AA2   mA.   E"
        }
    ],
    "companies": [
        {
            "id": "444",
            "name": "Renegade Recordings",
            "catno": "",
            "entity_type": "14",
            "entity_type_name": "Copyright (c)",
            "resource_url": "https://api.discogs.com/labels/444"
        },
        {
            "id": "299645",
            "name": "TOV Music",
            "catno": "",
            "entity_type": "13",
            "entity_type_name": "Phonographic Copyright (p)",
            "resource_url": "https://api.discogs.com/labels/299645"
        },
        {
            "id": "82645",
            "name": "Westbury Music",
            "catno": "",
            "entity_type": "13",
            "entity_type_name": "Phonographic Copyright (p)",
            "resource_url": "https://api.discogs.com/labels/82645"
        },
        {
            "id": "372119",
            "name": "Trouble On Vinyl Studios",
            "catno": "",
            "entity_type": "26",
            "entity_type_name": "Produced At",
            "resource_url": "https://api.discogs.com/labels/372119"
        },
        {
            "id": "372119",
            "name": "Trouble On Vinyl Studios",
            "catno": "",
            "entity_type": "27",
            "entity_type_name": "Mixed At",
            "resource_url": "https://api.discogs.com/labels/372119"
        },
        {
            "id": "158759",
            "name": "The Exchange",
            "catno": "",
            "entity_type": "30",
            "entity_type_name": "Lacquer Cut At",
            "resource_url": "https://api.discogs.com/labels/158759"
        },
        {
            "id": "158759",
            "name": "The Exchange",
            "catno": "",
            "entity_type": "29",
            "entity_type_name": "Mastered At",
            "resource_url": "https://api.discogs.com/labels/158759"
        }
    ]
}
